{
  "serviceVariable1" : {
    "_id" : "wm-serviceVariable1-wm.ServiceVariable-1517907561465",
    "name" : "serviceVariable1",
    "owner" : "Page",
    "category" : "wm.ServiceVariable",
    "dataBinding" : [ {
      "target" : "startDate",
      "value" : "bind:Variables.AppTest.dataSet.date | toDate: 'MM/dd/yyyy'",
      "type" : "string"
    }, {
      "target" : "status",
      "value" : "bind:Variables.AppTest.dataSet.name",
      "type" : "string"
    } ],
    "type" : "com.hrdb.models.query.TestAppVariableResponse",
    "service" : "hrdb",
    "operation" : "executeTestAppVariable",
    "operationId" : "QueryExecutionController_executeTestAppVariable",
    "operationType" : "get",
    "serviceType" : "DataService",
    "dataSet" : [ ],
    "isList" : true,
    "maxResults" : 20,
    "startUpdate" : false,
    "autoUpdate" : false,
    "inFlightBehavior" : "executeLast",
    "transformationRequired" : false,
    "saveInPhonegap" : false,
    "controller" : "QueryExecution"
  }
}