{
  "username" : "root",
  "password" : "7b6a43524a2621157e686d791a50777e47367b6a3120",
  "url" : "jdbc:mysql://ec2-54-87-2-36.compute-1.amazonaws.com:3306/classicmodels?useUnicode=yes&characterEncoding=UTF-8&zeroDateTimeBehavior=convertToNull",
  "driverClass" : "com.mysql.jdbc.Driver",
  "dialect" : "com.wavemaker.runtime.data.dialect.MySQLDialect",
  "serviceId" : "classicmodels",
  "packageName" : "com.appvariables.classicmodels",
  "dbType" : "MySQL",
  "host" : "ec2-54-87-2-36.compute-1.amazonaws.com",
  "dbName" : "classicmodels",
  "port" : "3306",
  "schemaName" : null,
  "tableFilter" : [ {
    "table" : "user",
    "schema" : null
  } ],
  "schemaFilter" : [ ],
  "impersonateUser" : false,
  "activeDirectoryDomain" : null,
  "hbm2ddl" : "none",
  "maxPageSize" : 100,
  "minPoolSize" : 2,
  "maxPoolSize" : 4,
  "transactionTimeout" : 30,
  "dataSourceType" : "WM_MANAGED_DATASOURCE",
  "jndiName" : "",
  "reloadInfo" : {
    "reload" : false,
    "reason" : null,
    "message" : null
  },
  "readOnly" : false
}