{
  "modelName" : "classicmodels",
  "entityName" : "User",
  "tableName" : "user",
  "unamePropertyName" : "username",
  "unameColumnName" : "username",
  "uidPropertyName" : "userId",
  "uidColumnName" : "userId",
  "pwPropertyName" : "username",
  "pwColumnName" : "username",
  "rolePropertyName" : "role",
  "roleColumnName" : "role",
  "useRolesQuery" : false,
  "rolesByUsernameQuery" : "",
  "tenantIdField" : null,
  "defTenantId" : 0,
  "tenantIdPropertyName" : null,
  "queryType" : "HQL"
}